^D:\새 폴더 (3)\DX11_FRAMEWORK\NEWDX11\DX11_VS2015\DEBUG_UNITTEST\DRAWVERTEX.OBJ|D:\새 폴더 (3)\DX11_FRAMEWORK\NEWDX11\DX11_VS2015\DEBUG_UNITTEST\MAIN.OBJ
D:\새 폴더 (3)\DX11_FRAMEWORK\NEWDX11\DX11_VS2015\DEBUG\UNITTEST.ILK
D:\새 폴더 (3)\DX11_FRAMEWORK\NEWDX11\DX11_VS2015\DEBUG\UNITTEST.EXE
D:\새 폴더 (3)\DX11_FRAMEWORK\NEWDX11\DX11_VS2015\DEBUG\UNITTEST.PDB
