^D:\새 폴더 (3)\DX11_FRAMEWORK\NEWDX11\DX11_VS2015\DEBUG_FRAMEWORK\BINARYFILE.OBJ|D:\새 폴더 (3)\DX11_FRAMEWORK\NEWDX11\DX11_VS2015\DEBUG_FRAMEWORK\CONTEXT.OBJ|D:\새 폴더 (3)\DX11_FRAMEWORK\NEWDX11\DX11_VS2015\DEBUG_FRAMEWORK\D3D.OBJ|D:\새 폴더 (3)\DX11_FRAMEWORK\NEWDX11\DX11_VS2015\DEBUG_FRAMEWORK\GUI.OBJ|D:\새 폴더 (3)\DX11_FRAMEWORK\NEWDX11\DX11_VS2015\DEBUG_FRAMEWORK\KEYBOARD.OBJ|D:\새 폴더 (3)\DX11_FRAMEWORK\NEWDX11\DX11_VS2015\DEBUG_FRAMEWORK\MATH.OBJ|D:\새 폴더 (3)\DX11_FRAMEWORK\NEWDX11\DX11_VS2015\DEBUG_FRAMEWORK\MOUSE.OBJ|D:\새 폴더 (3)\DX11_FRAMEWORK\NEWDX11\DX11_VS2015\DEBUG_FRAMEWORK\ORTHOGRAPHIC.OBJ|D:\새 폴더 (3)\DX11_FRAMEWORK\NEWDX11\DX11_VS2015\DEBUG_FRAMEWORK\PATH.OBJ|D:\새 폴더 (3)\DX11_FRAMEWORK\NEWDX11\DX11_VS2015\DEBUG_FRAMEWORK\PERSPECTIVE.OBJ|D:\새 폴더 (3)\DX11_FRAMEWORK\NEWDX11\DX11_VS2015\DEBUG_FRAMEWORK\PROJECTION.OBJ|D:\새 폴더 (3)\DX11_FRAMEWORK\NEWDX11\DX11_VS2015\DEBUG_FRAMEWORK\SHADER.OBJ|D:\새 폴더 (3)\DX11_FRAMEWORK\NEWDX11\DX11_VS2015\DEBUG_FRAMEWORK\STRING.OBJ|D:\새 폴더 (3)\DX11_FRAMEWORK\NEWDX11\DX11_VS2015\DEBUG_FRAMEWORK\TEXTURE.OBJ|D:\새 폴더 (3)\DX11_FRAMEWORK\NEWDX11\DX11_VS2015\DEBUG_FRAMEWORK\TIME.OBJ|D:\새 폴더 (3)\DX11_FRAMEWORK\NEWDX11\DX11_VS2015\DEBUG_FRAMEWORK\VIEWPORT.OBJ|D:\새 폴더 (3)\DX11_FRAMEWORK\NEWDX11\DX11_VS2015\DEBUG_FRAMEWORK\WINDOW.OBJ|D:\새 폴더 (3)\DX11_FRAMEWORK\NEWDX11\DX11_VS2015\DEBUG_FRAMEWORK\XML.OBJ
C:\WINDOWS\GLOBALIZATION\SORTING\SORTDEFAULT.NLS
D:\새 폴더 (3)\DX11_FRAMEWORK\NEWDX11\DX11_VS2015\DEBUG_FRAMEWORK\CONTEXT.OBJ
C:\WINDOWS\SYSTEM32\TZRES.DLL
D:\새 폴더 (3)\DX11_FRAMEWORK\NEWDX11\DX11_VS2015\DEBUG_FRAMEWORK\SHADER.OBJ
D:\새 폴더 (3)\DX11_FRAMEWORK\NEWDX11\DX11_VS2015\DEBUG_FRAMEWORK\TEXTURE.OBJ
D:\새 폴더 (3)\DX11_FRAMEWORK\NEWDX11\DX11_VS2015\DEBUG_FRAMEWORK\D3D.OBJ
D:\새 폴더 (3)\DX11_FRAMEWORK\NEWDX11\DX11_VS2015\DEBUG_FRAMEWORK\GUI.OBJ
D:\새 폴더 (3)\DX11_FRAMEWORK\NEWDX11\DX11_VS2015\DEBUG_FRAMEWORK\KEYBOARD.OBJ
D:\새 폴더 (3)\DX11_FRAMEWORK\NEWDX11\DX11_VS2015\DEBUG_FRAMEWORK\MOUSE.OBJ
D:\새 폴더 (3)\DX11_FRAMEWORK\NEWDX11\DX11_VS2015\DEBUG_FRAMEWORK\TIME.OBJ
D:\새 폴더 (3)\DX11_FRAMEWORK\NEWDX11\DX11_VS2015\DEBUG_FRAMEWORK\WINDOW.OBJ
D:\새 폴더 (3)\DX11_FRAMEWORK\NEWDX11\DX11_VS2015\DEBUG_FRAMEWORK\BINARYFILE.OBJ
D:\새 폴더 (3)\DX11_FRAMEWORK\NEWDX11\DX11_VS2015\DEBUG_FRAMEWORK\MATH.OBJ
D:\새 폴더 (3)\DX11_FRAMEWORK\NEWDX11\DX11_VS2015\DEBUG_FRAMEWORK\PATH.OBJ
D:\새 폴더 (3)\DX11_FRAMEWORK\NEWDX11\DX11_VS2015\DEBUG_FRAMEWORK\STRING.OBJ
D:\새 폴더 (3)\DX11_FRAMEWORK\NEWDX11\DX11_VS2015\DEBUG_FRAMEWORK\XML.OBJ
D:\새 폴더 (3)\DX11_FRAMEWORK\NEWDX11\DX11_VS2015\DEBUG_FRAMEWORK\ORTHOGRAPHIC.OBJ
D:\새 폴더 (3)\DX11_FRAMEWORK\NEWDX11\DX11_VS2015\DEBUG_FRAMEWORK\PERSPECTIVE.OBJ
D:\새 폴더 (3)\DX11_FRAMEWORK\NEWDX11\DX11_VS2015\DEBUG_FRAMEWORK\PROJECTION.OBJ
D:\새 폴더 (3)\DX11_FRAMEWORK\NEWDX11\DX11_VS2015\DEBUG_FRAMEWORK\VIEWPORT.OBJ
