^D:\NEWDX11\DX11_VS2015\DEBUG_FRAMEWORK\BINARYFILE.OBJ|D:\NEWDX11\DX11_VS2015\DEBUG_FRAMEWORK\CONTEXT.OBJ|D:\NEWDX11\DX11_VS2015\DEBUG_FRAMEWORK\D3D.OBJ|D:\NEWDX11\DX11_VS2015\DEBUG_FRAMEWORK\GUI.OBJ|D:\NEWDX11\DX11_VS2015\DEBUG_FRAMEWORK\KEYBOARD.OBJ|D:\NEWDX11\DX11_VS2015\DEBUG_FRAMEWORK\MATH.OBJ|D:\NEWDX11\DX11_VS2015\DEBUG_FRAMEWORK\MOUSE.OBJ|D:\NEWDX11\DX11_VS2015\DEBUG_FRAMEWORK\ORTHOGRAPHIC.OBJ|D:\NEWDX11\DX11_VS2015\DEBUG_FRAMEWORK\PATH.OBJ|D:\NEWDX11\DX11_VS2015\DEBUG_FRAMEWORK\PERSPECTIVE.OBJ|D:\NEWDX11\DX11_VS2015\DEBUG_FRAMEWORK\PROJECTION.OBJ|D:\NEWDX11\DX11_VS2015\DEBUG_FRAMEWORK\SHADER.OBJ|D:\NEWDX11\DX11_VS2015\DEBUG_FRAMEWORK\STRING.OBJ|D:\NEWDX11\DX11_VS2015\DEBUG_FRAMEWORK\TEXTURE.OBJ|D:\NEWDX11\DX11_VS2015\DEBUG_FRAMEWORK\TIME.OBJ|D:\NEWDX11\DX11_VS2015\DEBUG_FRAMEWORK\VIEWPORT.OBJ|D:\NEWDX11\DX11_VS2015\DEBUG_FRAMEWORK\WINDOW.OBJ|D:\NEWDX11\DX11_VS2015\DEBUG_FRAMEWORK\XML.OBJ
/OUT:"D:\NEWDX11\DX11_VS2015\DEBUG\FRAMEWORK.LIB" /LIBPATH:../../_LIBRARIES/ /NOLOGO D:\NEWDX11\DX11_VS2015\\DEBUG_FRAMEWORK\CONTEXT.OBJD:\NEWDX11\DX11_VS2015\\DEBUG_FRAMEWORK\SHADER.OBJD:\NEWDX11\DX11_VS2015\\DEBUG_FRAMEWORK\TEXTURE.OBJD:\NEWDX11\DX11_VS2015\\DEBUG_FRAMEWORK\D3D.OBJD:\NEWDX11\DX11_VS2015\\DEBUG_FRAMEWORK\GUI.OBJD:\NEWDX11\DX11_VS2015\\DEBUG_FRAMEWORK\KEYBOARD.OBJD:\NEWDX11\DX11_VS2015\\DEBUG_FRAMEWORK\MOUSE.OBJD:\NEWDX11\DX11_VS2015\\DEBUG_FRAMEWORK\TIME.OBJD:\NEWDX11\DX11_VS2015\\DEBUG_FRAMEWORK\WINDOW.OBJD:\NEWDX11\DX11_VS2015\\DEBUG_FRAMEWORK\BINARYFILE.OBJD:\NEWDX11\DX11_VS2015\\DEBUG_FRAMEWORK\MATH.OBJD:\NEWDX11\DX11_VS2015\\DEBUG_FRAMEWORK\PATH.OBJD:\NEWDX11\DX11_VS2015\\DEBUG_FRAMEWORK\STRING.OBJD:\NEWDX11\DX11_VS2015\\DEBUG_FRAMEWORK\XML.OBJD:\NEWDX11\DX11_VS2015\\DEBUG_FRAMEWORK\ORTHOGRAPHIC.OBJD:\NEWDX11\DX11_VS2015\\DEBUG_FRAMEWORK\PERSPECTIVE.OBJD:\NEWDX11\DX11_VS2015\\DEBUG_FRAMEWORK\PROJECTION.OBJD:\NEWDX11\DX11_VS2015\\DEBUG_FRAMEWORK\VIEWPORT.OBJ
^D:\새 폴더 (3)\DX11_FRAMEWORK\NEWDX11\DX11_VS2015\DEBUG_FRAMEWORK\BINARYFILE.OBJ|D:\새 폴더 (3)\DX11_FRAMEWORK\NEWDX11\DX11_VS2015\DEBUG_FRAMEWORK\CONTEXT.OBJ|D:\새 폴더 (3)\DX11_FRAMEWORK\NEWDX11\DX11_VS2015\DEBUG_FRAMEWORK\D3D.OBJ|D:\새 폴더 (3)\DX11_FRAMEWORK\NEWDX11\DX11_VS2015\DEBUG_FRAMEWORK\GUI.OBJ|D:\새 폴더 (3)\DX11_FRAMEWORK\NEWDX11\DX11_VS2015\DEBUG_FRAMEWORK\KEYBOARD.OBJ|D:\새 폴더 (3)\DX11_FRAMEWORK\NEWDX11\DX11_VS2015\DEBUG_FRAMEWORK\MATH.OBJ|D:\새 폴더 (3)\DX11_FRAMEWORK\NEWDX11\DX11_VS2015\DEBUG_FRAMEWORK\MOUSE.OBJ|D:\새 폴더 (3)\DX11_FRAMEWORK\NEWDX11\DX11_VS2015\DEBUG_FRAMEWORK\ORTHOGRAPHIC.OBJ|D:\새 폴더 (3)\DX11_FRAMEWORK\NEWDX11\DX11_VS2015\DEBUG_FRAMEWORK\PATH.OBJ|D:\새 폴더 (3)\DX11_FRAMEWORK\NEWDX11\DX11_VS2015\DEBUG_FRAMEWORK\PERSPECTIVE.OBJ|D:\새 폴더 (3)\DX11_FRAMEWORK\NEWDX11\DX11_VS2015\DEBUG_FRAMEWORK\PROJECTION.OBJ|D:\새 폴더 (3)\DX11_FRAMEWORK\NEWDX11\DX11_VS2015\DEBUG_FRAMEWORK\SHADER.OBJ|D:\새 폴더 (3)\DX11_FRAMEWORK\NEWDX11\DX11_VS2015\DEBUG_FRAMEWORK\STRING.OBJ|D:\새 폴더 (3)\DX11_FRAMEWORK\NEWDX11\DX11_VS2015\DEBUG_FRAMEWORK\TEXTURE.OBJ|D:\새 폴더 (3)\DX11_FRAMEWORK\NEWDX11\DX11_VS2015\DEBUG_FRAMEWORK\TIME.OBJ|D:\새 폴더 (3)\DX11_FRAMEWORK\NEWDX11\DX11_VS2015\DEBUG_FRAMEWORK\VIEWPORT.OBJ|D:\새 폴더 (3)\DX11_FRAMEWORK\NEWDX11\DX11_VS2015\DEBUG_FRAMEWORK\WINDOW.OBJ|D:\새 폴더 (3)\DX11_FRAMEWORK\NEWDX11\DX11_VS2015\DEBUG_FRAMEWORK\XML.OBJ
/OUT:"D:\새 폴더 (3)\DX11_FRAMEWORK\NEWDX11\DX11_VS2015\DEBUG\FRAMEWORK.LIB" /LIBPATH:../../_LIBRARIES/ /NOLOGO "D:\새 폴더 (3)\DX11_FRAMEWORK\NEWDX11\DX11_VS2015\\DEBUG_FRAMEWORK\CONTEXT.OBJ""D:\새 폴더 (3)\DX11_FRAMEWORK\NEWDX11\DX11_VS2015\\DEBUG_FRAMEWORK\SHADER.OBJ""D:\새 폴더 (3)\DX11_FRAMEWORK\NEWDX11\DX11_VS2015\\DEBUG_FRAMEWORK\TEXTURE.OBJ""D:\새 폴더 (3)\DX11_FRAMEWORK\NEWDX11\DX11_VS2015\\DEBUG_FRAMEWORK\D3D.OBJ""D:\새 폴더 (3)\DX11_FRAMEWORK\NEWDX11\DX11_VS2015\\DEBUG_FRAMEWORK\GUI.OBJ""D:\새 폴더 (3)\DX11_FRAMEWORK\NEWDX11\DX11_VS2015\\DEBUG_FRAMEWORK\KEYBOARD.OBJ""D:\새 폴더 (3)\DX11_FRAMEWORK\NEWDX11\DX11_VS2015\\DEBUG_FRAMEWORK\MOUSE.OBJ""D:\새 폴더 (3)\DX11_FRAMEWORK\NEWDX11\DX11_VS2015\\DEBUG_FRAMEWORK\TIME.OBJ""D:\새 폴더 (3)\DX11_FRAMEWORK\NEWDX11\DX11_VS2015\\DEBUG_FRAMEWORK\WINDOW.OBJ""D:\새 폴더 (3)\DX11_FRAMEWORK\NEWDX11\DX11_VS2015\\DEBUG_FRAMEWORK\BINARYFILE.OBJ""D:\새 폴더 (3)\DX11_FRAMEWORK\NEWDX11\DX11_VS2015\\DEBUG_FRAMEWORK\MATH.OBJ""D:\새 폴더 (3)\DX11_FRAMEWORK\NEWDX11\DX11_VS2015\\DEBUG_FRAMEWORK\PATH.OBJ""D:\새 폴더 (3)\DX11_FRAMEWORK\NEWDX11\DX11_VS2015\\DEBUG_FRAMEWORK\STRING.OBJ""D:\새 폴더 (3)\DX11_FRAMEWORK\NEWDX11\DX11_VS2015\\DEBUG_FRAMEWORK\XML.OBJ""D:\새 폴더 (3)\DX11_FRAMEWORK\NEWDX11\DX11_VS2015\\DEBUG_FRAMEWORK\ORTHOGRAPHIC.OBJ""D:\새 폴더 (3)\DX11_FRAMEWORK\NEWDX11\DX11_VS2015\\DEBUG_FRAMEWORK\PERSPECTIVE.OBJ""D:\새 폴더 (3)\DX11_FRAMEWORK\NEWDX11\DX11_VS2015\\DEBUG_FRAMEWORK\PROJECTION.OBJ""D:\새 폴더 (3)\DX11_FRAMEWORK\NEWDX11\DX11_VS2015\\DEBUG_FRAMEWORK\VIEWPORT.OBJ"
